<svg width="24" height="24" viewBox="0 0 24 24" fill="none" xmlns="http://www.w3.org/2000/svg">
<circle cx="12" cy="12" r="12" fill="#F4F9E6"/>
<path fill-rule="evenodd" clip-rule="evenodd" d="M14.0889 12.12C14.72 12.12 15.5556 11.8756 15.5556 11.3867V10.1645C15.5556 10.1645 14.8218 9.67556 13.1111 9.67556C11.4 9.67556 10.6667 10.1645 10.6667 10.1645V11.3867C10.6667 11.8756 11.5022 12.12 12.1333 12.12C12.8667 12.12 12.6222 11.5089 13.1111 11.5089C13.5996 11.5089 13.3556 12.12 14.0889 12.12ZM13.9262 14.7782C13.7627 14.6147 13.4973 14.6147 13.3338 14.7782C13.1702 14.9422 13.1702 15.2071 13.3338 15.3707C13.4973 15.5347 13.7627 15.5347 13.9262 15.3707C14.0898 15.2071 14.0898 14.9422 13.9262 14.7782ZM12.7409 13.5929C12.5773 13.4293 12.312 13.4293 12.1484 13.5929C11.9849 13.7569 11.9849 14.0218 12.1484 14.1853C12.312 14.3493 12.5773 14.3493 12.7409 14.1853C12.9044 14.0218 12.9044 13.7569 12.7409 13.5929ZM9.18489 10.0369C9.02134 9.87334 8.756 9.87334 8.59245 10.0369C8.42889 10.2009 8.42889 10.4658 8.59245 10.6293C8.756 10.7933 9.02134 10.7933 9.18489 10.6293C9.34845 10.4658 9.34845 10.2009 9.18489 10.0369ZM7.99956 8.85156C7.83601 8.68801 7.57067 8.68801 7.40712 8.85156C7.24356 9.01556 7.24356 9.28045 7.40712 9.44401C7.57067 9.60801 7.83601 9.60801 7.99956 9.44401C8.16312 9.28045 8.16312 9.01556 7.99956 8.85156ZM16.5933 18.0378C16.0964 18.5351 15.4507 18.7778 14.8084 18.7778C14.04 18.7778 13.2756 18.4298 12.7751 17.7533L12.184 16.9533C10.3924 14.5289 8.24845 12.3858 5.82445 10.5938L5.02445 10.0027C3.78267 9.08444 3.648 7.27689 4.74 6.18489C5.23689 5.68756 5.88222 5.44444 6.52445 5.44444C7.29333 5.44444 8.05778 5.79289 8.55822 6.46933L9.14933 7.26933C9.63467 7.92578 10.1476 8.56 10.6831 9.17378C10.9978 9.05156 11.4684 8.92222 12.0942 8.84844L15.9422 5L17.1991 6.25733C17.1991 6.25733 16.0471 7.40933 14.5471 8.90889C14.9893 8.98844 15.3333 9.092 15.5769 9.18933C15.7658 9 15.9267 8.83956 16.0436 8.72222C18.2622 6.50356 20 6.02311 20 6.02311C20 6.02311 19.5196 7.76089 17.3009 9.97911C17.0667 10.2133 16.7724 10.508 16.4444 10.8356V11.3867C16.4444 12.2818 15.6067 12.8164 14.6449 12.9649C14.9289 13.1911 15.2164 13.4129 15.5084 13.6289L16.3084 14.22C17.5507 15.1382 17.6853 16.9458 16.5933 18.0378ZM6.80089 17.9653L8.05778 19.2222L10.7409 16.5391C10.368 16.0756 9.98 15.6253 9.58 15.1853C8.01867 16.7476 6.80089 17.9653 6.80089 17.9653ZM7.956 15.5004C5.73778 17.7191 4 18.1995 4 18.1995C4 18.1995 4.48044 16.4618 6.69911 14.2435C6.96222 13.9804 7.29422 13.648 7.67244 13.2693C8.11022 13.6698 8.53378 14.0844 8.94622 14.5102C8.51467 14.9418 8.16889 15.2875 7.956 15.5004Z" fill="#97BA1E"/>
</svg>
