<svg width="16" height="16" viewBox="0 0 16 16" fill="none" xmlns="http://www.w3.org/2000/svg">
<path fill-rule="evenodd" clip-rule="evenodd" d="M12.3854 11.4722C13.3937 10.2593 14 8.70048 14 7C14 3.13401 10.866 0 7 0C3.13401 0 0 3.13401 0 7C0 10.866 3.13401 14 7 14C8.44342 14 9.78481 13.5631 10.8991 12.8144L13.5607 15.4759C13.9512 15.8664 14.5843 15.8664 14.9749 15.4759C15.3654 15.0854 15.3654 14.4522 14.9749 14.0617L12.3854 11.4722ZM7 12C9.76142 12 12 9.76142 12 7C12 4.23858 9.76142 2 7 2C4.23858 2 2 4.23858 2 7C2 9.76142 4.23858 12 7 12Z" fill="#505F79"/>
</svg>
